[
{
	"package_version": 0,
	"name": "valkyrien-skies",
	"title": "Valkyrien Skies",
	"actions": [
		{
			"name": "download",
			"inputs": [
				{
					"name": "BRANCH",
					"default": "master"
				}
			],
			"run": "git clone https://github.com/ValkyrienSkies/Valkyrien-Skies.git -b $BRANCH '$BRANCH'"
		},
		{
			"name": "build",
			"run": "./gradlew build"
		}
	}
}
]
